List #	Sentence #	SNR [dB]	Words identified	Words total	Id 1/0
26	12	15	6	6	1
26	9	10	6	6	1
26	17	8	5	5	1
26	16	6	7	7	1
26	4	5	6	6	1
26	10	3	7	7	1
26	2	2	6	6	1
26	19	1	5	5	1
26	20	0	0	7	0
26	14	1	8	8	1
26	1	0	0	8	0
26	15	1	0	8	0
26	11	2	5	5	1
26	6	1	0	6	0
26	18	2	6	6	1
26	3	1	5	5	1
26	8	0	9	9	1
26	7	-1	4	4	1
26	13	-2	0	4	0
26	5	-1	8	8	1
25	10	-2	0	6	0
25	19	-1	0	9	0
25	18	0	6	6	1
25	3	-1	5	5	1
25	14	-2	0	8	0
25	2	-1	6	6	1
25	17	-2	0	6	0
25	5	-1	9	9	1
25	6	-2	0	6	0
25	1	-1	0	9	0
25	12	0	0	7	0
25	20	1	10	10	1
25	16	0	0	8	0
25	9	1	6	6	1
25	11	0	5	5	1
25	4	-1	0	4	0
25	15	0	0	10	0
25	13	1	4	4	1
25	7	0	0	6	0
25	8	1	4	4	1
